E: 21737.081148 0003 002f 0
E: 21737.081148 0003 0030 0
E: 21737.081148 0003 0031 0
E: 21737.081148 0003 0032 0
E: 21737.081148 0003 0033 0
E: 21737.081148 0003 0034 0
E: 21737.081148 0003 0035 379
E: 21737.081148 0003 0036 58
E: 21737.081148 0003 0037 0
E: 21737.081148 0003 0038 0
E: 21737.081148 0003 0039 827
E: 21737.081148 0003 003a 55
E: 21737.081148 0003 003b 0
E: 21737.081148 0003 002f 1
E: 21737.081148 0003 0030 0
E: 21737.081148 0003 0031 0
E: 21737.081148 0003 0032 0
E: 21737.081148 0003 0033 0
E: 21737.081148 0003 0034 0
E: 21737.081148 0003 0035 558
E: 21737.081148 0003 0036 30
E: 21737.081148 0003 0037 0
E: 21737.081148 0003 0038 0
E: 21737.081148 0003 0039 828
E: 21737.081148 0003 003a 46
E: 21737.081148 0003 003b 0
E: 21737.081148 0003 002f 2
E: 21737.081148 0003 0039 -1
E: 21737.081148 0003 002f 3
E: 21737.081148 0003 0039 -1
E: 21737.081148 0003 002f 4
E: 21737.081148 0003 0039 -1
E: 21737.081148 0003 002f 5
E: 21737.081148 0003 0039 -1
E: 21737.081148 0003 002f 6
E: 21737.081148 0003 0039 -1
E: 21737.081148 0003 002f 7
E: 21737.081148 0003 0039 -1
E: 21737.081148 0003 002f 8
E: 21737.081148 0003 0039 -1
E: 21737.081148 0003 002f 9
E: 21737.081148 0003 0039 -1
E: 21737.081148 0003 002f 10
E: 21737.081148 0003 0039 -1
E: 21737.081148 0003 002f 11
E: 21737.081148 0003 0039 -1
E: 21737.081148 0003 002f 12
E: 21737.081148 0003 0039 -1
E: 21737.081148 0003 002f 13
E: 21737.081148 0003 0039 -1
E: 21737.081148 0003 002f 14
E: 21737.081148 0003 0039 -1
E: 21737.081148 0003 002f 1
E: 21737.081148 0001 014a 1
E: 21737.081148 0001 014d 1
E: 21737.081148 0000 0000 0
E: 21737.092229 0003 002f 0
E: 21737.092230 0003 0035 375
E: 21737.092232 0003 0036 88
E: 21737.092233 0003 003a 51
E: 21737.092236 0003 002f 1
E: 21737.092236 0003 0035 552
E: 21737.092237 0003 0036 43
E: 21737.092238 0003 003a 49
E: 21737.092262 0003 0000 375
E: 21737.092263 0003 0001 88
E: 21737.092264 0003 0018 51
E: 21737.092266 0000 0000 0
E: 21737.102984 0003 002f 0
E: 21737.102986 0003 0035 372
E: 21737.102987 0003 0036 140
E: 21737.102988 0003 003a 42
E: 21737.102991 0003 002f 1
E: 21737.102991 0003 0035 547
E: 21737.102992 0003 0036 136
E: 21737.102993 0003 003a 33
E: 21737.103043 0003 0000 372
E: 21737.103044 0003 0001 140
E: 21737.103045 0003 0018 42
E: 21737.103046 0000 0000 0
E: 21737.112110 0003 002f 0
E: 21737.112112 0003 0035 379
E: 21737.112113 0003 0036 257
E: 21737.112114 0003 003a 28
E: 21737.112116 0003 002f 1
E: 21737.112116 0003 0039 -1
E: 21737.112136 0001 0145 1
E: 21737.112138 0001 014d 0
E: 21737.112139 0003 0000 379
E: 21737.112140 0003 0001 257
E: 21737.112141 0003 0018 28
E: 21737.112143 0000 0000 0
E: 21737.120106 0003 002f 0
E: 21737.120107 0003 0039 -1
E: 21737.120128 0001 014a 0
E: 21737.120129 0001 0145 0
E: 21737.120130 0003 0018 0
E: 21737.120131 0000 0000 0
E: 21737.120631 0003 002f 0
E: 21737.120631 0003 0039 -1
E: 21737.120631 0003 002f 1
E: 21737.120631 0003 0039 -1
E: 21737.120631 0003 002f 2
E: 21737.120631 0003 0039 -1
E: 21737.120631 0003 002f 3
E: 21737.120631 0003 0039 -1
E: 21737.120631 0003 002f 4
E: 21737.120631 0003 0039 -1
E: 21737.120631 0003 002f 5
E: 21737.120631 0003 0039 -1
E: 21737.120631 0003 002f 6
E: 21737.120631 0003 0039 -1
E: 21737.120631 0003 002f 7
E: 21737.120631 0003 0039 -1
E: 21737.120631 0003 002f 8
E: 21737.120631 0003 0039 -1
E: 21737.120631 0003 002f 9
E: 21737.120631 0003 0039 -1
E: 21737.120631 0003 002f 10
E: 21737.120631 0003 0039 -1
E: 21737.120631 0003 002f 11
E: 21737.120631 0003 0039 -1
E: 21737.120631 0003 002f 12
E: 21737.120631 0003 0039 -1
E: 21737.120631 0003 002f 13
E: 21737.120631 0003 0039 -1
E: 21737.120631 0003 002f 14
E: 21737.120631 0003 0039 -1
