E: 941.027949 0003 002f 0
E: 941.027949 0003 0039 -1
E: 941.027949 0003 002f 1
E: 941.027949 0003 0039 -1
E: 941.027949 0003 002f 2
E: 941.027949 0003 0039 -1
E: 941.027949 0003 002f 3
E: 941.027949 0003 0039 -1
E: 941.027949 0003 002f 4
E: 941.027949 0003 0039 -1
E: 941.027949 0003 002f 5
E: 941.027949 0003 0039 -1
E: 941.027949 0003 002f 6
E: 941.027949 0003 0039 -1
E: 941.027949 0003 002f 7
E: 941.027949 0003 0039 -1
E: 941.027949 0003 002f 8
E: 941.027949 0003 0039 -1
E: 941.027949 0003 002f 9
E: 941.027949 0003 0039 -1
E: 941.027949 0003 002f 10
E: 941.027949 0003 0039 -1
E: 941.027949 0003 002f 11
E: 941.027949 0003 0039 -1
E: 941.027949 0003 002f 12
E: 941.027949 0003 0039 -1
E: 941.027949 0003 002f 13
E: 941.027949 0003 0039 -1
E: 941.027949 0003 002f 14
E: 941.027949 0003 0039 -1
E: 941.027949 0003 002f 2
E: 941.027949 0000 0000 0
E: 941.121821 0003 002f 0
E: 941.121822 0003 0039 263
E: 941.121825 0003 0035 363
E: 941.121826 0003 0036 215
E: 941.121827 0003 003a 60
E: 941.121852 0001 014a 1
E: 941.121853 0001 0145 1
E: 941.121856 0003 0000 363
E: 941.121857 0003 0001 215
E: 941.121858 0003 0018 60
E: 941.121860 0000 0000 0
E: 941.133383 0003 0035 355
E: 941.133385 0003 0036 212
E: 941.133386 0003 003a 63
E: 941.133389 0003 002f 1
E: 941.133389 0003 0039 264
E: 941.133391 0003 0035 402
E: 941.133393 0003 0036 283
E: 941.133394 0003 003a 48
E: 941.133418 0001 0145 0
E: 941.133420 0001 014d 1
E: 941.133422 0003 0000 355
E: 941.133424 0003 0001 212
E: 941.133425 0003 0018 63
E: 941.133426 0000 0000 0
E: 941.144919 0003 002f 0
E: 941.144921 0003 0035 353
E: 941.144926 0003 002f 1
E: 941.144927 0003 0035 401
E: 941.144928 0003 0036 285
E: 941.144929 0003 003a 51
E: 941.144956 0003 0000 353
E: 941.144960 0000 0000 0
E: 941.156636 0003 002f 0
E: 941.156638 0003 0035 351
E: 941.156643 0003 002f 1
E: 941.156643 0003 0035 400
E: 941.156645 0003 0036 286
E: 941.156646 0003 003a 53
E: 941.156672 0003 0000 351
E: 941.156676 0000 0000 0
E: 941.168415 0003 002f 0
E: 941.168416 0003 0035 319
E: 941.168418 0003 0036 174
E: 941.168419 0003 003a 54
E: 941.168422 0003 002f 1
E: 941.168423 0003 0035 399
E: 941.168424 0003 0036 287
E: 941.168425 0003 003a 54
E: 941.168452 0003 0000 319
E: 941.168453 0003 0001 174
E: 941.168454 0003 0018 54
E: 941.168455 0000 0000 0
E: 941.180154 0003 002f 0
E: 941.180155 0003 0035 318
E: 941.180156 0003 0036 173
E: 941.180158 0003 003a 55
E: 941.180161 0003 002f 1
E: 941.180162 0003 0035 398
E: 941.180164 0003 003a 52
E: 941.180190 0003 0000 318
E: 941.180191 0003 0001 173
E: 941.180192 0003 0018 55
E: 941.180194 0000 0000 0
E: 941.192072 0003 002f 0
E: 941.192074 0003 0035 317
E: 941.192108 0003 0000 317
E: 941.192111 0000 0000 0
E: 941.203904 0003 0035 316
E: 941.203911 0003 002f 1
E: 941.203911 0003 0035 397
E: 941.203940 0003 0000 316
E: 941.203943 0001 0110 1
E: 941.203944 0000 0000 0
E: 941.215583 0003 002f 0
E: 941.215584 0003 0035 315
E: 941.215585 0003 0036 172
E: 941.215586 0003 003a 56
E: 941.215609 0003 0000 315
E: 941.215610 0003 0001 172
E: 941.215611 0003 0018 56
E: 941.215612 0000 0000 0
E: 941.227415 0003 002f 1
E: 941.227416 0003 0035 396
E: 941.227440 0000 0000 0
E: 941.239286 0003 003a 53
E: 941.239309 0000 0000 0
E: 941.274850 0003 0036 288
E: 941.274874 0000 0000 0
E: 941.298656 0003 0036 287
E: 941.298689 0000 0000 0
E: 941.310581 0003 002f 0
E: 941.310583 0003 0035 316
E: 941.310584 0003 0036 173
E: 941.310588 0003 002f 1
E: 941.310588 0003 0036 288
E: 941.310610 0003 0000 316
E: 941.310611 0003 0001 173
E: 941.310613 0000 0000 0
E: 941.322310 0003 002f 0
E: 941.322312 0003 0035 317
E: 941.322313 0003 0036 174
E: 941.322314 0003 003a 54
E: 941.322318 0003 002f 1
E: 941.322318 0003 0035 398
E: 941.322320 0003 0036 287
E: 941.322348 0003 0000 317
E: 941.322349 0003 0001 174
E: 941.322350 0003 0018 54
E: 941.322352 0000 0000 0
E: 941.333984 0003 002f 0
E: 941.333985 0003 0035 320
E: 941.333987 0003 0036 175
E: 941.333988 0003 003a 52
E: 941.334053 0003 0000 320
E: 941.334055 0003 0001 175
E: 941.334056 0003 0018 52
E: 941.334058 0000 0000 0
E: 941.345560 0003 0035 351
E: 941.345563 0003 0036 213
E: 941.345564 0003 003a 63
E: 941.345568 0003 002f 1
E: 941.345568 0003 0035 400
E: 941.345597 0003 0000 351
E: 941.345598 0003 0001 213
E: 941.345599 0003 0018 63
E: 941.345601 0001 0110 0
E: 941.345602 0000 0000 0
E: 941.357273 0003 002f 0
E: 941.357275 0003 0035 354
E: 941.357280 0003 002f 1
E: 941.357280 0003 0035 401
E: 941.357282 0003 003a 52
E: 941.357310 0003 0000 354
E: 941.357314 0000 0000 0
E: 941.368924 0003 002f 0
E: 941.368926 0003 0035 357
E: 941.368927 0003 0036 215
E: 941.368931 0003 002f 1
E: 941.368932 0003 0035 403
E: 941.368960 0003 0000 357
E: 941.368962 0003 0001 215
E: 941.368964 0000 0000 0
E: 941.380333 0003 002f 0
E: 941.380334 0003 0035 361
E: 941.380336 0003 0036 216
E: 941.380337 0003 003a 61
E: 941.380341 0003 002f 1
E: 941.380341 0003 0035 405
E: 941.380343 0003 003a 50
E: 941.380371 0003 0000 361
E: 941.380372 0003 0001 216
E: 941.380373 0003 0018 61
E: 941.380375 0000 0000 0
E: 941.391862 0003 002f 0
E: 941.391864 0003 0035 366
E: 941.391865 0003 0036 219
E: 941.391866 0003 003a 55
E: 941.391870 0003 002f 1
E: 941.391870 0003 0035 406
E: 941.391871 0003 0036 285
E: 941.391872 0003 003a 46
E: 941.391899 0003 0000 366
E: 941.391900 0003 0001 219
E: 941.391901 0003 0018 55
E: 941.391903 0000 0000 0
E: 941.401429 0003 0035 386
E: 941.401431 0003 0036 248
E: 941.401432 0003 003a 52
E: 941.401435 0003 002f 0
E: 941.401435 0003 0039 -1
E: 941.401459 0001 0145 1
E: 941.401461 0001 014d 0
E: 941.401463 0003 0000 386
E: 941.401464 0003 0001 248
E: 941.401465 0003 0018 52
E: 941.401467 0000 0000 0
E: 941.410275 0003 002f 1
E: 941.410276 0003 0035 391
E: 941.410278 0003 003a 36
E: 941.410306 0003 0000 391
E: 941.410309 0003 0018 36
E: 941.410310 0000 0000 0
E: 941.419212 0003 0035 397
E: 941.419214 0003 0036 252
E: 941.419215 0003 003a 18
E: 941.419242 0003 0000 397
E: 941.419243 0003 0001 252
E: 941.419245 0003 0018 18
E: 941.419246 0000 0000 0
E: 941.427185 0003 0039 -1
E: 941.427209 0001 014a 0
E: 941.427210 0001 0145 0
E: 941.427212 0003 0018 0
E: 941.427213 0000 0000 0
E: 941.529168 0003 002f 0
E: 941.529170 0003 0039 265
E: 941.529172 0003 0035 408
E: 941.529173 0003 0036 215
E: 941.529174 0003 003a 41
E: 941.529199 0001 014a 1
E: 941.529200 0001 0145 1
E: 941.529203 0003 0000 408
E: 941.529204 0003 0001 215
E: 941.529205 0003 0018 41
E: 941.529207 0000 0000 0
E: 941.540369 0003 0035 374
E: 941.540371 0003 0036 176
E: 941.540372 0003 003a 47
E: 941.540375 0003 002f 1
E: 941.540375 0003 0039 266
E: 941.540377 0003 0035 446
E: 941.540379 0003 0036 283
E: 941.540380 0003 003a 45
E: 941.540405 0001 0145 0
E: 941.540406 0001 014d 1
E: 941.540409 0003 0000 374
E: 941.540410 0003 0001 176
E: 941.540411 0003 0018 47
E: 941.540413 0000 0000 0
E: 941.552142 0003 002f 0
E: 941.552143 0003 0035 408
E: 941.552144 0003 0036 228
E: 941.552146 0003 003a 101
E: 941.552148 0003 002f 1
E: 941.552148 0003 0039 -1
E: 941.552172 0001 0145 1
E: 941.552173 0001 014d 0
E: 941.552175 0003 0000 408
E: 941.552177 0003 0001 228
E: 941.552178 0003 0018 101
E: 941.552180 0000 0000 0
E: 941.563953 0003 002f 0
E: 941.563954 0003 0035 402
E: 941.563955 0003 0036 225
E: 941.563956 0003 003a 106
E: 941.563984 0003 0000 402
E: 941.563985 0003 0001 225
E: 941.563987 0003 0018 106
E: 941.563988 0000 0000 0
E: 941.575797 0003 0035 400
E: 941.575800 0003 003a 108
E: 941.575828 0003 0000 400
E: 941.575830 0003 0018 108
E: 941.575832 0000 0000 0
E: 941.587394 0003 0035 403
E: 941.587396 0003 0036 229
E: 941.587397 0003 003a 103
E: 941.587424 0003 0000 403
E: 941.587425 0003 0001 229
E: 941.587427 0003 0018 103
E: 941.587428 0000 0000 0
E: 941.599238 0003 0035 399
E: 941.599240 0003 0036 225
E: 941.599241 0003 003a 107
E: 941.599269 0003 0000 399
E: 941.599270 0003 0001 225
E: 941.599271 0003 0018 107
E: 941.599273 0000 0000 0
E: 941.610989 0003 0035 397
E: 941.610991 0003 0036 224
E: 941.610992 0003 003a 108
E: 941.611045 0003 0000 397
E: 941.611046 0003 0001 224
E: 941.611048 0003 0018 108
E: 941.611049 0000 0000 0
E: 941.622748 0003 0036 223
E: 941.622751 0003 003a 106
E: 941.622780 0003 0001 223
E: 941.622781 0003 0018 106
E: 941.622782 0000 0000 0
E: 941.634343 0003 0035 419
E: 941.634344 0003 0036 255
E: 941.634346 0003 003a 63
E: 941.634348 0003 002f 2
E: 941.634348 0003 0039 267
E: 941.634350 0003 0035 361
E: 941.634352 0003 0036 173
E: 941.634353 0003 003a 58
E: 941.634376 0001 0145 0
E: 941.634378 0001 014d 1
E: 941.634380 0003 0000 419
E: 941.634381 0003 0001 255
E: 941.634383 0003 0018 63
E: 941.634384 0000 0000 0
E: 941.704956 0003 002f 0
E: 941.704957 0003 0035 441
E: 941.704958 0003 0036 285
E: 941.704959 0003 003a 49
E: 941.704965 0003 002f 2
E: 941.704965 0003 003a 59
E: 941.704993 0003 0000 441
E: 941.704994 0003 0001 285
E: 941.704995 0003 0018 49
E: 941.704997 0000 0000 0
E: 941.763617 0003 002f 0
E: 941.763618 0003 0036 284
E: 941.763619 0003 003a 48
E: 941.763623 0003 002f 2
E: 941.763623 0003 0035 362
E: 941.763653 0003 0001 284
E: 941.763654 0003 0018 48
E: 941.763656 0000 0000 0
E: 941.775488 0003 002f 0
E: 941.775489 0003 0035 419
E: 941.775490 0003 0036 255
E: 941.775492 0003 003a 63
E: 941.775497 0003 002f 2
E: 941.775497 0003 003a 58
E: 941.775526 0003 0000 419
E: 941.775527 0003 0001 255
E: 941.775528 0003 0018 63
E: 941.775530 0000 0000 0
E: 941.787078 0003 002f 0
E: 941.787079 0003 0035 420
E: 941.787085 0003 002f 2
E: 941.787085 0003 0035 364
E: 941.787086 0003 0036 174
E: 941.787087 0003 003a 57
E: 941.787115 0003 0000 420
E: 941.787119 0000 0000 0
E: 941.798587 0003 002f 0
E: 941.798588 0003 0036 254
E: 941.798593 0003 002f 2
E: 941.798593 0003 0035 366
E: 941.798594 0003 0036 175
E: 941.798595 0003 003a 55
E: 941.798624 0003 0001 254
E: 941.798627 0000 0000 0
E: 941.810179 0003 002f 0
E: 941.810180 0003 0035 421
E: 941.810185 0003 002f 2
E: 941.810186 0003 0035 368
E: 941.810187 0003 0036 176
E: 941.810188 0003 003a 53
E: 941.810216 0003 0000 421
E: 941.810219 0000 0000 0
E: 941.821797 0003 002f 0
E: 941.821799 0003 0035 443
E: 941.821800 0003 0036 283
E: 941.821801 0003 003a 46
E: 941.821805 0003 002f 2
E: 941.821805 0003 0035 371
E: 941.821806 0003 0036 179
E: 941.821808 0003 003a 48
E: 941.821835 0003 0000 443
E: 941.821836 0003 0001 283
E: 941.821838 0003 0018 46
E: 941.821839 0000 0000 0
E: 941.833039 0003 002f 0
E: 941.833040 0003 0036 284
E: 941.833041 0003 003a 47
E: 941.833045 0003 002f 2
E: 941.833045 0003 0035 403
E: 941.833047 0003 0036 216
E: 941.833048 0003 003a 63
E: 941.833075 0003 0001 284
E: 941.833076 0003 0018 47
E: 941.833078 0000 0000 0
E: 941.844386 0003 002f 0
E: 941.844387 0003 0035 444
E: 941.844388 0003 0036 282
E: 941.844389 0003 003a 44
E: 941.844393 0003 002f 2
E: 941.844393 0003 0035 408
E: 941.844394 0003 0036 220
E: 941.844396 0003 003a 57
E: 941.844422 0003 0000 444
E: 941.844423 0003 0001 282
E: 941.844424 0003 0018 44
E: 941.844426 0000 0000 0
E: 941.853887 0003 0035 425
E: 941.853889 0003 0036 244
E: 941.853890 0003 003a 38
E: 941.853893 0003 002f 0
E: 941.853893 0003 0039 -1
E: 941.853917 0001 0145 1
E: 941.853918 0001 014d 0
E: 941.853920 0003 0000 425
E: 941.853922 0003 0001 244
E: 941.853923 0003 0018 38
E: 941.853925 0000 0000 0
E: 941.861727 0003 002f 2
E: 941.861728 0003 0039 -1
E: 941.861749 0001 014a 0
E: 941.861750 0001 0145 0
E: 941.861751 0003 0018 0
E: 941.861752 0000 0000 0
E: 941.862252 0003 002f 0
E: 941.862252 0003 0039 -1
E: 941.862252 0003 002f 1
E: 941.862252 0003 0039 -1
E: 941.862252 0003 002f 2
E: 941.862252 0003 0039 -1
E: 941.862252 0003 002f 3
E: 941.862252 0003 0039 -1
E: 941.862252 0003 002f 4
E: 941.862252 0003 0039 -1
E: 941.862252 0003 002f 5
E: 941.862252 0003 0039 -1
E: 941.862252 0003 002f 6
E: 941.862252 0003 0039 -1
E: 941.862252 0003 002f 7
E: 941.862252 0003 0039 -1
E: 941.862252 0003 002f 8
E: 941.862252 0003 0039 -1
E: 941.862252 0003 002f 9
E: 941.862252 0003 0039 -1
E: 941.862252 0003 002f 10
E: 941.862252 0003 0039 -1
E: 941.862252 0003 002f 11
E: 941.862252 0003 0039 -1
E: 941.862252 0003 002f 12
E: 941.862252 0003 0039 -1
E: 941.862252 0003 002f 13
E: 941.862252 0003 0039 -1
E: 941.862252 0003 002f 14
E: 941.862252 0003 0039 -1
