# device: Apple Magic Mouse
# bit: 1F 00 00 00 00 00 00 00
# key: 00 00 00 00 00 00 00 00 00 00 00 00 00 00 00 00 00 00 00 00 00 00 00 00 00 00 00 00 00 00 00 00 00 00 03 00 00 00 00 00 20 E5 00 00 00 00 00 00 00 00 00 00 00 00 00 00 00 00 00 00 00 00 00 00 00 00 00 00 00 00 00 00 00 00 00 00 00 00 00 00 00 00 00 00 00 00 00 00 00 00 00 00 00 00 00 00
# rel: 03 00 00 00 00 00 00 00
# abs: 00 00 00 00 00 80 73 02
# led: 00 00 00 00 00 00 00 00
# prp: 01 00 00 00 00 00 00 00
# absinfo: 47 0 15 0 0 0
# absinfo: 48 0 1020 4 0 0
# absinfo: 49 0 1020 4 0 0
# absinfo: 52 -31 32 1 0 0
# absinfo: 53 -1100 1258 4 0 26
# absinfo: 54 -1589 2047 4 0 70
# absinfo: 57 0 65535 0 0 0
E: 87904.403176 0003 002f 0
E: 87904.403176 0003 0039 -1
E: 87904.403176 0003 002f 1
E: 87904.403176 0003 0039 -1
E: 87904.403176 0003 002f 2
E: 87904.403176 0003 0039 -1
E: 87904.403176 0003 002f 3
E: 87904.403176 0003 0039 -1
E: 87904.403176 0003 002f 4
E: 87904.403176 0003 0030 276
E: 87904.403176 0003 0031 156
E: 87904.403176 0003 0032 0
E: 87904.403176 0003 0033 0
E: 87904.403176 0003 0034 0
E: 87904.403176 0003 0035 302
E: 87904.403176 0003 0036 -966
E: 87904.403176 0003 0037 0
E: 87904.403176 0003 0038 0
E: 87904.403176 0003 0039 3
E: 87904.403176 0003 003a 0
E: 87904.403176 0003 003b 0
E: 87904.403176 0003 002f 5
E: 87904.403176 0003 0039 -1
E: 87904.403176 0003 002f 6
E: 87904.403176 0003 0039 -1
E: 87904.403176 0003 002f 7
E: 87904.403176 0003 0039 -1
E: 87904.403176 0003 002f 8
E: 87904.403176 0003 0039 -1
E: 87904.403176 0003 002f 9
E: 87904.403176 0003 0039 -1
E: 87904.403176 0003 002f 10
E: 87904.403176 0003 0039 -1
E: 87904.403176 0003 002f 11
E: 87904.403176 0003 0039 -1
E: 87904.403176 0003 002f 12
E: 87904.403176 0003 0039 -1
E: 87904.403176 0003 002f 13
E: 87904.403176 0003 0039 -1
E: 87904.403176 0003 002f 14
E: 87904.403176 0003 0039 -1
E: 87904.403176 0003 002f 15
E: 87904.403176 0003 0039 -1
E: 87904.403176 0003 002f 4
E: 87904.403176 0001 0145 1
E: 87904.403176 0001 014a 1
E: 87904.403176 0000 0000 0
E: 87904.404391 0003 0030 296
E: 87904.404391 0003 0031 228
E: 87904.404391 0003 0035 289
E: 87904.404391 0003 0036 -970
E: 87904.404391 0000 0000 0
E: 87904.414427 0003 0030 312
E: 87904.414427 0003 0031 288
E: 87904.414427 0003 0035 287
E: 87904.414427 0000 0000 0
E: 87904.425665 0003 0030 320
E: 87904.425665 0003 0031 316
E: 87904.425665 0003 0035 286
E: 87904.425665 0003 0036 -966
E: 87904.425665 0000 0000 0
E: 87904.436916 0003 0030 344
E: 87904.436916 0003 0031 348
E: 87904.436916 0003 0035 285
E: 87904.436916 0003 0036 -961
E: 87904.436916 0000 0000 0
E: 87904.448172 0003 0030 352
E: 87904.448172 0003 0031 372
E: 87904.448172 0003 0036 -956
E: 87904.448172 0000 0000 0
E: 87904.459423 0003 0030 348
E: 87904.459423 0003 0031 380
E: 87904.459423 0003 0036 -951
E: 87904.459423 0000 0000 0
E: 87904.470701 0003 0030 360
E: 87904.470701 0003 0031 388
E: 87904.470701 0003 0035 284
E: 87904.470701 0003 0036 -944
E: 87904.470701 0000 0000 0
E: 87904.481966 0003 0030 364
E: 87904.481966 0003 0031 392
E: 87904.481966 0003 0035 283
E: 87904.481966 0003 0036 -937
E: 87904.481966 0000 0000 0
E: 87904.493647 0003 0030 360
E: 87904.493647 0003 0036 -927
E: 87904.493647 0000 0000 0
E: 87904.504479 0003 0030 356
E: 87904.504479 0003 0036 -916
E: 87904.504479 0000 0000 0
E: 87904.516196 0003 0030 356
E: 87904.516196 0003 0031 388
E: 87904.516196 0003 0036 -899
E: 87904.516196 0000 0000 0
E: 87904.526959 0003 0035 282
E: 87904.526959 0003 0036 -880
E: 87904.526959 0000 0000 0
E: 87904.538222 0003 0030 376
E: 87904.538222 0003 0035 281
E: 87904.538222 0003 0036 -856
E: 87904.538222 0000 0000 0
E: 87904.549857 0003 0030 372
E: 87904.549857 0003 0035 279
E: 87904.549857 0003 0036 -832
E: 87904.549857 0000 0000 0
E: 87904.560672 0003 0035 276
E: 87904.560672 0003 0036 -805
E: 87904.560672 0000 0000 0
E: 87904.571864 0003 0031 384
E: 87904.571864 0003 0035 272
E: 87904.571864 0003 0036 -778
E: 87904.571864 0000 0000 0
E: 87904.584343 0003 0030 380
E: 87904.584343 0003 0031 384
E: 87904.584343 0003 0035 269
E: 87904.584343 0003 0036 -750
E: 87904.584343 0000 0000 0
E: 87904.594314 0003 0031 376
E: 87904.594314 0003 0035 266
E: 87904.594314 0003 0036 -721
E: 87904.594314 0000 0000 0
E: 87904.605548 0003 0031 372
E: 87904.605548 0003 0035 262
E: 87904.605548 0003 0036 -692
E: 87904.605548 0000 0000 0
E: 87904.616833 0003 0031 372
E: 87904.616833 0003 0035 258
E: 87904.616833 0003 0036 -661
E: 87904.616833 0000 0000 0
E: 87904.628079 0003 0031 368
E: 87904.628079 0003 0034 -3
E: 87904.628079 0003 0035 256
E: 87904.628079 0003 0036 -629
E: 87904.628079 0000 0000 0
E: 87904.639319 0003 0030 388
E: 87904.639319 0003 0034 -1
E: 87904.639319 0003 0035 254
E: 87904.639319 0003 0036 -595
E: 87904.639319 0000 0000 0
E: 87904.650571 0003 0030 384
E: 87904.650571 0003 0031 388
E: 87904.650571 0003 0034 0
E: 87904.650571 0003 0035 252
E: 87904.650571 0003 0036 -560
E: 87904.650571 0000 0000 0
E: 87904.661824 0003 0030 376
E: 87904.661824 0003 0035 250
E: 87904.661824 0003 0036 -525
E: 87904.661824 0000 0000 0
E: 87904.673155 0003 0030 368
E: 87904.673155 0003 0031 400
E: 87904.673155 0003 0035 248
E: 87904.673155 0003 0036 -489
E: 87904.673155 0000 0000 0
E: 87904.684344 0003 0030 360
E: 87904.684344 0003 0031 396
E: 87904.684344 0003 0035 247
E: 87904.684344 0003 0036 -453
E: 87904.684344 0000 0000 0
E: 87904.695560 0003 0030 344
E: 87904.695560 0003 0031 396
E: 87904.695560 0003 0035 244
E: 87904.695560 0003 0036 -404
E: 87904.695560 0000 0000 0
E: 87904.706802 0003 0030 352
E: 87904.706802 0003 0031 392
E: 87904.706802 0003 0035 241
E: 87904.706802 0003 0036 -365
E: 87904.706802 0000 0000 0
E: 87904.718038 0003 0030 348
E: 87904.718038 0003 0031 388
E: 87904.718038 0003 0035 238
E: 87904.718038 0003 0036 -340
E: 87904.718038 0000 0000 0
E: 87904.730597 0003 0030 356
E: 87904.730597 0003 0031 384
E: 87904.730597 0003 0035 234
E: 87904.730597 0003 0036 -302
E: 87904.730597 0000 0000 0
E: 87904.740555 0003 0030 360
E: 87904.740555 0003 0031 372
E: 87904.740555 0003 0034 -6
E: 87904.740555 0003 0035 229
E: 87904.740555 0003 0036 -251
E: 87904.740555 0000 0000 0
E: 87904.751818 0003 0030 360
E: 87904.751818 0003 0031 360
E: 87904.751818 0003 0035 226
E: 87904.751818 0003 0036 -226
E: 87904.751818 0000 0000 0
E: 87904.763084 0003 0030 352
E: 87904.763084 0003 0031 368
E: 87904.763084 0003 0034 0
E: 87904.763084 0003 0035 222
E: 87904.763084 0003 0036 -187
E: 87904.763084 0000 0000 0
E: 87904.774291 0003 0031 360
E: 87904.774291 0003 0034 -4
E: 87904.774291 0003 0035 217
E: 87904.774291 0003 0036 -134
E: 87904.774291 0000 0000 0
E: 87904.785562 0003 0030 352
E: 87904.785562 0003 0031 364
E: 87904.785562 0003 0034 0
E: 87904.785562 0003 0036 -106
E: 87904.785562 0000 0000 0
E: 87904.796816 0003 0030 348
E: 87904.796816 0003 0031 376
E: 87904.796816 0003 0035 213
E: 87904.796816 0003 0036 -66
E: 87904.796816 0000 0000 0
E: 87904.808054 0003 0031 388
E: 87904.808054 0003 0035 211
E: 87904.808054 0003 0036 -11
E: 87904.808054 0000 0000 0
E: 87904.819293 0003 0030 340
E: 87904.819293 0003 0035 209
E: 87904.819293 0003 0036 16
E: 87904.819293 0000 0000 0
E: 87904.830569 0003 0031 396
E: 87904.830569 0003 0035 206
E: 87904.830569 0003 0036 71
E: 87904.830569 0000 0000 0
E: 87904.841811 0003 0030 356
E: 87904.841811 0003 0035 203
E: 87904.841811 0003 0036 114
E: 87904.841811 0000 0000 0
E: 87904.853048 0003 0030 332
E: 87904.853048 0003 0035 200
E: 87904.853048 0003 0036 158
E: 87904.853048 0000 0000 0
E: 87904.864302 0003 0030 316
E: 87904.864302 0003 0031 380
E: 87904.864302 0003 0035 194
E: 87904.864302 0003 0036 204
E: 87904.864302 0000 0000 0
E: 87904.875560 0003 0030 300
E: 87904.875560 0003 0031 400
E: 87904.875560 0003 0035 188
E: 87904.875560 0003 0036 251
E: 87904.875560 0000 0000 0
E: 87904.886815 0003 0031 392
E: 87904.886815 0003 0035 181
E: 87904.886815 0003 0036 299
E: 87904.886815 0000 0000 0
E: 87904.898050 0003 0030 332
E: 87904.898050 0003 0031 412
E: 87904.898050 0003 0035 170
E: 87904.898050 0003 0036 367
E: 87904.898050 0000 0000 0
E: 87904.909303 0003 0030 308
E: 87904.909303 0003 0031 416
E: 87904.909303 0003 0035 167
E: 87904.909303 0003 0036 404
E: 87904.909303 0000 0000 0
E: 87904.920531 0003 0030 312
E: 87904.920531 0003 0031 428
E: 87904.920531 0003 0035 158
E: 87904.920531 0003 0036 456
E: 87904.920531 0000 0000 0
E: 87904.931803 0003 0030 324
E: 87904.931803 0003 0031 436
E: 87904.931803 0003 0035 149
E: 87904.931803 0003 0036 508
E: 87904.931803 0000 0000 0
E: 87904.943125 0003 0030 316
E: 87904.943125 0003 0031 432
E: 87904.943125 0003 0035 138
E: 87904.943125 0003 0036 557
E: 87904.943125 0000 0000 0
E: 87904.954287 0003 0030 312
E: 87904.954287 0003 0031 412
E: 87904.954287 0003 0035 124
E: 87904.954287 0003 0036 606
E: 87904.954287 0000 0000 0
E: 87904.965534 0003 0030 292
E: 87904.965534 0003 0031 400
E: 87904.965534 0003 0035 111
E: 87904.965534 0003 0036 655
E: 87904.965534 0000 0000 0
E: 87904.976842 0003 0030 296
E: 87904.976842 0003 0031 384
E: 87904.976842 0003 0035 104
E: 87904.976842 0003 0036 686
E: 87904.976842 0000 0000 0
E: 87904.988055 0003 0030 280
E: 87904.988055 0003 0031 368
E: 87904.988055 0003 0035 93
E: 87904.988055 0003 0036 731
E: 87904.988055 0000 0000 0
E: 87904.999307 0003 0030 264
E: 87904.999307 0003 0031 364
E: 87904.999307 0003 0035 79
E: 87904.999307 0003 0036 791
E: 87904.999307 0000 0000 0
E: 87905.010539 0003 0030 248
E: 87905.010539 0003 0035 69
E: 87905.010539 0003 0036 834
E: 87905.010539 0000 0000 0
E: 87905.021797 0003 0030 236
E: 87905.021797 0003 0031 372
E: 87905.021797 0003 0035 63
E: 87905.021797 0003 0036 861
E: 87905.021797 0000 0000 0
E: 87905.033058 0003 0031 364
E: 87905.033058 0003 0035 54
E: 87905.033058 0003 0036 901
E: 87905.033058 0000 0000 0
E: 87905.044287 0003 0030 244
E: 87905.044287 0003 0035 45
E: 87905.044287 0003 0036 938
E: 87905.044287 0000 0000 0
E: 87905.055526 0003 0030 260
E: 87905.055526 0003 0031 372
E: 87905.055526 0003 0035 37
E: 87905.055526 0003 0036 973
E: 87905.055526 0000 0000 0
E: 87905.066814 0003 0030 268
E: 87905.066814 0003 0031 376
E: 87905.066814 0003 0035 31
E: 87905.066814 0003 0036 1004
E: 87905.066814 0000 0000 0
E: 87905.078047 0003 0030 272
E: 87905.078047 0003 0031 380
E: 87905.078047 0003 0035 27
E: 87905.078047 0003 0036 1019
E: 87905.078047 0000 0000 0
E: 87905.089302 0003 0030 284
E: 87905.089302 0003 0031 388
E: 87905.089302 0003 0035 22
E: 87905.089302 0003 0036 1042
E: 87905.089302 0000 0000 0
E: 87905.100532 0003 0031 392
E: 87905.100532 0003 0035 18
E: 87905.100532 0003 0036 1063
E: 87905.100532 0000 0000 0
E: 87905.111847 0003 0031 388
E: 87905.111847 0003 0035 15
E: 87905.111847 0003 0036 1079
E: 87905.111847 0000 0000 0
E: 87905.123048 0003 0030 288
E: 87905.123048 0003 0031 396
E: 87905.123048 0003 0035 12
E: 87905.123048 0003 0036 1092
E: 87905.123048 0000 0000 0
E: 87905.134294 0003 0030 292
E: 87905.134294 0003 0035 11
E: 87905.134294 0003 0036 1097
E: 87905.134294 0000 0000 0
E: 87905.145541 0003 0031 388
E: 87905.145541 0003 0035 8
E: 87905.145541 0003 0036 1110
E: 87905.145541 0000 0000 0
E: 87905.156829 0003 0031 388
E: 87905.156829 0003 0035 7
E: 87905.156829 0003 0036 1115
E: 87905.156829 0000 0000 0
E: 87905.168043 0003 0035 7
E: 87905.168043 0003 0036 1118
E: 87905.168043 0000 0000 0
E: 87905.179325 0003 0030 296
E: 87905.179325 0003 0036 1120
E: 87905.179325 0000 0000 0
E: 87905.190530 0003 0031 396
E: 87905.190530 0000 0000 0
E: 87905.201774 0003 0030 280
E: 87905.201774 0003 0031 396
E: 87905.201774 0000 0000 0
E: 87905.235537 0003 0031 404
E: 87905.235537 0000 0000 0
E: 87905.246801 0003 0030 288
E: 87905.246801 0003 0031 400
E: 87905.246801 0000 0000 0
E: 87905.258131 0003 0030 316
E: 87905.258131 0003 0036 1114
E: 87905.258131 0000 0000 0
E: 87905.269282 0003 0030 292
E: 87905.269282 0003 0036 1110
E: 87905.269282 0000 0000 0
E: 87905.280538 0003 0030 0
E: 87905.280538 0003 0031 0
E: 87905.280538 0003 0036 1110
E: 87905.280538 0000 0000 0
E: 87905.291755 0003 0039 -1
E: 87905.291755 0001 014a 0
E: 87905.291755 0001 0145 0
E: 87905.291755 0000 0000 0
E: 87905.292255 0003 002f 0
E: 87905.292255 0003 0039 -1
E: 87905.292255 0003 002f 1
E: 87905.292255 0003 0039 -1
E: 87905.292255 0003 002f 2
E: 87905.292255 0003 0039 -1
E: 87905.292255 0003 002f 3
E: 87905.292255 0003 0039 -1
E: 87905.292255 0003 002f 4
E: 87905.292255 0003 0039 -1
E: 87905.292255 0003 002f 5
E: 87905.292255 0003 0039 -1
E: 87905.292255 0003 002f 6
E: 87905.292255 0003 0039 -1
E: 87905.292255 0003 002f 7
E: 87905.292255 0003 0039 -1
E: 87905.292255 0003 002f 8
E: 87905.292255 0003 0039 -1
E: 87905.292255 0003 002f 9
E: 87905.292255 0003 0039 -1
E: 87905.292255 0003 002f 10
E: 87905.292255 0003 0039 -1
E: 87905.292255 0003 002f 11
E: 87905.292255 0003 0039 -1
E: 87905.292255 0003 002f 12
E: 87905.292255 0003 0039 -1
E: 87905.292255 0003 002f 13
E: 87905.292255 0003 0039 -1
E: 87905.292255 0003 002f 14
E: 87905.292255 0003 0039 -1
E: 87905.292255 0003 002f 15
E: 87905.292255 0003 0039 -1
