# device: Cypress-APA-Trackpad-(cyapa)
# bit: 0B 00 00 00 00 00 00 00
# key: 00 00 00 00 00 00 00 00 00 00 00 00 00 00 00 00 00 00 00 00 00 00 00 00 00 00 00 00 00 00 00 00 00 00 01 00 00 00 00 00 20 E5 00 00 00 00 00 00 00 00 00 00 00 00 00 00 00 00 00 00 00 00 00 00 00 00 00 00 00 00 00 00 00 00 00 00 00 00 00 00 00 00 00 00 00 00 00 00 00 00 00 00 00 00 00 00
# rel: 00 00 00 00 00 00 00 00
# abs: 03 00 00 01 00 80 60 06
# led: 00 00 00 00 00 00 00 00
# prp: 05 00 00 00 00 00 00 00
# absinfo: 0 0 1280 0 0 13
# absinfo: 1 0 680 0 0 12
# absinfo: 24 0 255 0 0 0
# absinfo: 47 0 14 0 0 0
# absinfo: 53 0 1280 0 0 13
# absinfo: 54 0 680 0 0 12
# absinfo: 57 0 65535 0 0 0
# absinfo: 58 0 255 0 0 0
E: 10148.236983 0003 002f 0
E: 10148.236983 0003 0030 0
E: 10148.236983 0003 0031 0
E: 10148.236983 0003 0032 0
E: 10148.236983 0003 0033 0
E: 10148.236983 0003 0034 0
E: 10148.236983 0003 0035 660
E: 10148.236983 0003 0036 254
E: 10148.236983 0003 0037 0
E: 10148.236983 0003 0038 0
E: 10148.236983 0003 0039 5139
E: 10148.236983 0003 003a 5
E: 10148.236983 0003 003b 0
E: 10148.236983 0003 002f 1
E: 10148.236983 0003 0030 0
E: 10148.236983 0003 0031 0
E: 10148.236983 0003 0032 0
E: 10148.236983 0003 0033 0
E: 10148.236983 0003 0034 0
E: 10148.236983 0003 0035 833
E: 10148.236983 0003 0036 47
E: 10148.236983 0003 0037 0
E: 10148.236983 0003 0038 0
E: 10148.236983 0003 0039 5140
E: 10148.236983 0003 003a 9
E: 10148.236983 0003 003b 0
E: 10148.236983 0003 002f 2
E: 10148.236983 0003 0039 -1
E: 10148.236983 0003 002f 3
E: 10148.236983 0003 0039 -1
E: 10148.236983 0003 002f 4
E: 10148.236983 0003 0039 -1
E: 10148.236983 0003 002f 5
E: 10148.236983 0003 0039 -1
E: 10148.236983 0003 002f 6
E: 10148.236983 0003 0039 -1
E: 10148.236983 0003 002f 7
E: 10148.236983 0003 0039 -1
E: 10148.236983 0003 002f 8
E: 10148.236983 0003 0039 -1
E: 10148.236983 0003 002f 9
E: 10148.236983 0003 0039 -1
E: 10148.236983 0003 002f 10
E: 10148.236983 0003 0039 -1
E: 10148.236983 0003 002f 11
E: 10148.236983 0003 0039 -1
E: 10148.236983 0003 002f 12
E: 10148.236983 0003 0039 -1
E: 10148.236983 0003 002f 13
E: 10148.236983 0003 0039 -1
E: 10148.236983 0003 002f 14
E: 10148.236983 0003 0039 -1
E: 10148.236983 0003 002f 1
E: 10148.236983 0001 014a 1
E: 10148.236983 0001 014d 1
E: 10148.236983 0000 0000 0
E: 10148.248153 0003 002f 0
E: 10148.248156 0003 0035 661
E: 10148.248159 0003 0036 266
E: 10148.248162 0003 003a 38
E: 10148.248166 0003 002f 1
E: 10148.248168 0003 0035 821
E: 10148.248170 0003 0036 75
E: 10148.248172 0003 003a 31
E: 10148.248198 0003 0000 661
E: 10148.248200 0003 0001 266
E: 10148.248202 0003 0018 38
E: 10148.248204 0000 0000 0
E: 10148.259383 0003 002f 0
E: 10148.259386 0003 0035 656
E: 10148.259388 0003 0036 277
E: 10148.259390 0003 003a 37
E: 10148.259394 0003 002f 1
E: 10148.259395 0003 0035 823
E: 10148.259397 0003 0036 91
E: 10148.259399 0003 003a 32
E: 10148.259423 0003 0000 656
E: 10148.259425 0003 0001 277
E: 10148.259427 0003 0018 37
E: 10148.259430 0000 0000 0
E: 10148.270527 0003 002f 0
E: 10148.270530 0003 0035 657
E: 10148.270532 0003 0036 316
E: 10148.270538 0003 002f 1
E: 10148.270539 0003 0036 132
E: 10148.270541 0003 003a 33
E: 10148.270565 0003 0000 657
E: 10148.270567 0003 0001 316
E: 10148.270570 0000 0000 0
E: 10148.281339 0003 002f 0
E: 10148.281342 0003 0035 658
E: 10148.281344 0003 0036 360
E: 10148.281346 0003 003a 36
E: 10148.281351 0003 002f 1
E: 10148.281352 0003 0035 825
E: 10148.281354 0003 0036 181
E: 10148.281381 0003 0000 658
E: 10148.281384 0003 0001 360
E: 10148.281386 0003 0018 36
E: 10148.281388 0000 0000 0
E: 10148.292090 0003 002f 0
E: 10148.292092 0003 0035 664
E: 10148.292094 0003 0036 417
E: 10148.292097 0003 003a 35
E: 10148.292101 0003 002f 1
E: 10148.292103 0003 0036 231
E: 10148.292105 0003 003a 32
E: 10148.292129 0003 0000 664
E: 10148.292131 0003 0001 417
E: 10148.292133 0003 0018 35
E: 10148.292135 0000 0000 0
E: 10148.302738 0003 002f 0
E: 10148.302741 0003 0035 671
E: 10148.302743 0003 0036 476
E: 10148.302745 0003 003a 32
E: 10148.302749 0003 002f 1
E: 10148.302751 0003 0035 829
E: 10148.302753 0003 0036 279
E: 10148.302778 0003 0000 671
E: 10148.302780 0003 0001 476
E: 10148.302782 0003 0018 32
E: 10148.302784 0000 0000 0
E: 10148.313398 0003 002f 0
E: 10148.313401 0003 0035 681
E: 10148.313405 0003 0036 531
E: 10148.313408 0003 003a 29
E: 10148.313414 0003 002f 1
E: 10148.313416 0003 0035 831
E: 10148.313418 0003 0036 331
E: 10148.313421 0003 003a 29
E: 10148.313452 0003 0000 681
E: 10148.313454 0003 0001 531
E: 10148.313456 0003 0018 29
E: 10148.313459 0000 0000 0
E: 10148.323930 0003 002f 0
E: 10148.323932 0003 0035 694
E: 10148.323934 0003 0036 572
E: 10148.323936 0003 003a 27
E: 10148.323941 0003 002f 1
E: 10148.323942 0003 0035 837
E: 10148.323944 0003 0036 374
E: 10148.323969 0003 0000 694
E: 10148.323971 0003 0001 572
E: 10148.323973 0003 0018 27
E: 10148.323975 0000 0000 0
E: 10148.335678 0003 002f 0
E: 10148.335680 0003 0035 698
E: 10148.335683 0003 0036 621
E: 10148.335685 0003 003a 20
E: 10148.335690 0003 002f 1
E: 10148.335691 0003 0036 412
E: 10148.335693 0003 003a 24
E: 10148.335725 0003 0000 698
E: 10148.335728 0003 0001 621
E: 10148.335730 0003 0018 20
E: 10148.335733 0000 0000 0
E: 10148.346415 0003 002f 0
E: 10148.346417 0003 0035 706
E: 10148.346420 0003 0036 673
E: 10148.346423 0003 003a 5
E: 10148.346428 0003 002f 1
E: 10148.346431 0003 0036 444
E: 10148.346433 0003 003a 12
E: 10148.346459 0003 0000 706
E: 10148.346461 0003 0001 673
E: 10148.346463 0003 0018 5
E: 10148.346465 0000 0000 0
E: 10148.353735 0003 002f 0
E: 10148.353739 0003 0039 -1
E: 10148.353742 0003 002f 1
E: 10148.353743 0003 0039 -1
E: 10148.353775 0001 014a 0
E: 10148.353777 0001 014d 0
E: 10148.353780 0003 0018 0
E: 10148.353781 0000 0000 0
E: 10148.354281 0003 002f 0
E: 10148.354281 0003 0039 -1
E: 10148.354281 0003 002f 1
E: 10148.354281 0003 0039 -1
E: 10148.354281 0003 002f 2
E: 10148.354281 0003 0039 -1
E: 10148.354281 0003 002f 3
E: 10148.354281 0003 0039 -1
E: 10148.354281 0003 002f 4
E: 10148.354281 0003 0039 -1
E: 10148.354281 0003 002f 5
E: 10148.354281 0003 0039 -1
E: 10148.354281 0003 002f 6
E: 10148.354281 0003 0039 -1
E: 10148.354281 0003 002f 7
E: 10148.354281 0003 0039 -1
E: 10148.354281 0003 002f 8
E: 10148.354281 0003 0039 -1
E: 10148.354281 0003 002f 9
E: 10148.354281 0003 0039 -1
E: 10148.354281 0003 002f 10
E: 10148.354281 0003 0039 -1
E: 10148.354281 0003 002f 11
E: 10148.354281 0003 0039 -1
E: 10148.354281 0003 002f 12
E: 10148.354281 0003 0039 -1
E: 10148.354281 0003 002f 13
E: 10148.354281 0003 0039 -1
E: 10148.354281 0003 002f 14
E: 10148.354281 0003 0039 -1
