# device: Elan Touchpad
# bit: 0B 00 00 00 00 00 00 00
# key: 00 00 00 00 00 00 00 00 00 00 00 00 00 00 00 00 00 00 00 00 00 00 00 00 00 00 00 00 00 00 00 00 00 00 01 00 00 00 00 00 20 E5 00 00 00 00 00 00 00 00 00 00 00 00 00 00 00 00 00 00 00 00 00 00 00 00 00 00 00 00 00 00 00 00 00 00 00 00 00 00 00 00 00 00 00 00 00 00 00 00 00 00 00 00 00 00
# rel: 00 00 00 00 00 00 00 00
# abs: 03 00 00 11 00 80 63 06
# led: 00 00 00 00 00 00 00 00
# prp: 05 00 00 00 00 00 00 00
# absinfo: 0 0 3300 0 0 31
# absinfo: 1 0 1977 0 0 31
# absinfo: 24 0 255 0 0 0
# absinfo: 28 0 15 0 0 0
# absinfo: 47 0 4 0 0 0
# absinfo: 48 0 2475 0 0 0
# absinfo: 49 0 2460 0 0 0
# absinfo: 53 0 3300 0 0 31
# absinfo: 54 0 1977 0 0 31
# absinfo: 57 0 65535 0 0 0
# absinfo: 58 0 255 0 0 0
E: 4447.316108 0003 002f 0
E: 4447.316108 0003 0030 296
E: 4447.316108 0003 0031 225
E: 4447.316108 0003 0032 0
E: 4447.316108 0003 0033 0
E: 4447.316108 0003 0034 0
E: 4447.316108 0003 0035 929
E: 4447.316108 0003 0036 1765
E: 4447.316108 0003 0037 0
E: 4447.316108 0003 0038 0
E: 4447.316108 0003 0039 25
E: 4447.316108 0003 003a 65
E: 4447.316108 0003 003b 0
E: 4447.316108 0003 002f 1
E: 4447.316108 0003 0039 -1
E: 4447.316108 0003 002f 2
E: 4447.316108 0003 0039 -1
E: 4447.316108 0003 002f 3
E: 4447.316108 0003 0039 -1
E: 4447.316108 0003 002f 4
E: 4447.316108 0003 0039 -1
E: 4447.316108 0003 002f 0
E: 4447.316108 0001 0145 1
E: 4447.316108 0001 014a 1
E: 4447.316108 0000 0000 0
E: 4447.321357 0003 003a 67
E: 4447.321357 0003 001c 4
E: 4447.321357 0003 0030 300
E: 4447.321357 0003 0031 296
E: 4447.321357 0003 0018 67
E: 4447.321357 0000 0000 0
E: 4447.326725 0003 003a 68
E: 4447.326725 0003 0018 68
E: 4447.326725 0000 0000 0
E: 4447.331214 0003 003a 69
E: 4447.331214 0003 0018 69
E: 4447.331214 0000 0000 0
E: 4447.336738 0003 003a 70
E: 4447.336738 0003 0018 70
E: 4447.336738 0000 0000 0
E: 4447.344424 0003 003a 69
E: 4447.344424 0003 0018 69
E: 4447.344424 0000 0000 0
E: 4447.348440 0003 0035 923
E: 4447.348440 0003 0036 1763
E: 4447.348440 0003 003a 70
E: 4447.348440 0003 0000 923
E: 4447.348440 0003 0001 1763
E: 4447.348440 0003 0018 70
E: 4447.348440 0000 0000 0
E: 4447.353579 0003 0035 919
E: 4447.353579 0003 0036 1762
E: 4447.353579 0003 0000 919
E: 4447.353579 0003 0001 1762
E: 4447.353579 0000 0000 0
E: 4447.358659 0003 0035 916
E: 4447.358659 0003 0036 1761
E: 4447.358659 0003 0000 916
E: 4447.358659 0003 0001 1761
E: 4447.358659 0000 0000 0
E: 4447.363690 0003 0035 913
E: 4447.363690 0003 0036 1759
E: 4447.363690 0003 0000 913
E: 4447.363690 0003 0001 1759
E: 4447.363690 0000 0000 0
E: 4447.369367 0003 0035 911
E: 4447.369367 0003 0036 1758
E: 4447.369367 0003 0000 911
E: 4447.369367 0003 0001 1758
E: 4447.369367 0000 0000 0
E: 4447.374761 0003 0035 909
E: 4447.374761 0003 0036 1756
E: 4447.374761 0003 0000 909
E: 4447.374761 0003 0001 1756
E: 4447.374761 0000 0000 0
E: 4447.380609 0003 0035 907
E: 4447.380609 0003 0036 1754
E: 4447.380609 0001 0110 1
E: 4447.380609 0003 0000 907
E: 4447.380609 0003 0001 1754
E: 4447.380609 0000 0000 0
E: 4447.386535 0003 0035 905
E: 4447.386535 0003 0036 1751
E: 4447.386535 0003 001c 3
E: 4447.386535 0003 0030 296
E: 4447.386535 0003 0031 225
E: 4447.386535 0003 0000 905
E: 4447.386535 0003 0001 1751
E: 4447.386535 0000 0000 0
E: 4447.394009 0003 0035 903
E: 4447.394009 0003 0036 1749
E: 4447.394009 0003 003a 71
E: 4447.394009 0003 001c 4
E: 4447.394009 0003 0030 300
E: 4447.394009 0003 0031 296
E: 4447.394009 0003 0000 903
E: 4447.394009 0003 0001 1749
E: 4447.394009 0003 0018 71
E: 4447.394009 0000 0000 0
E: 4447.399051 0003 0035 900
E: 4447.399051 0003 0036 1746
E: 4447.399051 0003 003a 72
E: 4447.399051 0003 001c 3
E: 4447.399051 0003 0030 296
E: 4447.399051 0003 0031 225
E: 4447.399051 0003 0000 900
E: 4447.399051 0003 0001 1746
E: 4447.399051 0003 0018 72
E: 4447.399051 0000 0000 0
E: 4447.404086 0003 0035 898
E: 4447.404086 0003 0036 1744
E: 4447.404086 0003 0000 898
E: 4447.404086 0003 0001 1744
E: 4447.404086 0000 0000 0
E: 4447.409851 0003 0035 896
E: 4447.409851 0003 0036 1742
E: 4447.409851 0003 0000 896
E: 4447.409851 0003 0001 1742
E: 4447.409851 0000 0000 0
E: 4447.416120 0003 0035 894
E: 4447.416120 0003 0036 1740
E: 4447.416120 0003 0000 894
E: 4447.416120 0003 0001 1740
E: 4447.416120 0000 0000 0
E: 4447.422890 0003 0035 892
E: 4447.422890 0003 0036 1738
E: 4447.422890 0003 0000 892
E: 4447.422890 0003 0001 1738
E: 4447.422890 0000 0000 0
E: 4447.428083 0003 0035 890
E: 4447.428083 0003 0036 1736
E: 4447.428083 0003 003a 73
E: 4447.428083 0003 0000 890
E: 4447.428083 0003 0001 1736
E: 4447.428083 0003 0018 73
E: 4447.428083 0000 0000 0
E: 4447.433535 0003 0035 888
E: 4447.433535 0003 0036 1735
E: 4447.433535 0003 003a 74
E: 4447.433535 0003 0000 888
E: 4447.433535 0003 0001 1735
E: 4447.433535 0003 0018 74
E: 4447.433535 0000 0000 0
E: 4447.441163 0003 0035 887
E: 4447.441163 0003 0036 1734
E: 4447.441163 0003 0000 887
E: 4447.441163 0003 0001 1734
E: 4447.441163 0000 0000 0
E: 4447.446271 0003 0035 886
E: 4447.446271 0003 0036 1733
E: 4447.446271 0003 0000 886
E: 4447.446271 0003 0001 1733
E: 4447.446271 0000 0000 0
E: 4447.452237 0003 0035 885
E: 4447.452237 0003 0036 1732
E: 4447.452237 0003 0000 885
E: 4447.452237 0003 0001 1732
E: 4447.452237 0000 0000 0
E: 4447.456772 0003 0035 884
E: 4447.456772 0003 0036 1731
E: 4447.456772 0003 0000 884
E: 4447.456772 0003 0001 1731
E: 4447.456772 0000 0000 0
E: 4447.462528 0003 0035 883
E: 4447.462528 0003 0036 1730
E: 4447.462528 0003 0000 883
E: 4447.462528 0003 0001 1730
E: 4447.462528 0000 0000 0
E: 4447.468452 0003 0035 882
E: 4447.468452 0003 0036 1728
E: 4447.468452 0003 0000 882
E: 4447.468452 0003 0001 1728
E: 4447.468452 0000 0000 0
E: 4447.474236 0003 0035 881
E: 4447.474236 0003 0036 1727
E: 4447.474236 0003 0000 881
E: 4447.474236 0003 0001 1727
E: 4447.474236 0000 0000 0
E: 4447.480087 0003 0036 1726
E: 4447.480087 0003 0001 1726
E: 4447.480087 0000 0000 0
E: 4447.503764 0003 0036 1727
E: 4447.503764 0003 0001 1727
E: 4447.503764 0000 0000 0
E: 4447.509654 0003 0036 1728
E: 4447.509654 0003 0001 1728
E: 4447.509654 0000 0000 0
E: 4447.533651 0003 003a 75
E: 4447.533651 0003 0018 75
E: 4447.533651 0000 0000 0
E: 4447.545613 0003 0036 1729
E: 4447.545613 0003 003a 76
E: 4447.545613 0003 0001 1729
E: 4447.545613 0003 0018 76
E: 4447.545613 0000 0000 0
E: 4447.550675 0003 0036 1730
E: 4447.550675 0003 0001 1730
E: 4447.550675 0000 0000 0
E: 4447.568162 0003 003a 75
E: 4447.568162 0003 0018 75
E: 4447.568162 0000 0000 0
E: 4447.574017 0003 0036 1731
E: 4447.574017 0003 0001 1731
E: 4447.574017 0000 0000 0
E: 4447.580578 0003 0036 1732
E: 4447.580578 0003 003a 76
E: 4447.580578 0003 0001 1732
E: 4447.580578 0003 0018 76
E: 4447.580578 0000 0000 0
E: 4447.592426 0003 0036 1733
E: 4447.592426 0003 0001 1733
E: 4447.592426 0000 0000 0
E: 4447.603768 0003 0036 1734
E: 4447.603768 0003 0001 1734
E: 4447.603768 0000 0000 0
E: 4447.620846 0003 0035 882
E: 4447.620846 0003 0000 882
E: 4447.620846 0000 0000 0
E: 4447.626764 0003 0036 1733
E: 4447.626764 0003 0001 1733
E: 4447.626764 0000 0000 0
E: 4447.632567 0003 0036 1732
E: 4447.632567 0003 0001 1732
E: 4447.632567 0000 0000 0
E: 4447.658758 0003 002f 1
E: 4447.658758 0003 0039 26
E: 4447.658758 0003 0035 1475
E: 4447.658758 0003 0036 329
E: 4447.658758 0003 003a 46
E: 4447.658758 0003 0030 225
E: 4447.658758 0003 0031 222
E: 4447.658758 0001 0145 0
E: 4447.658758 0001 014d 1
E: 4447.658758 0000 0000 0
E: 4447.664760 0003 003a 47
E: 4447.664760 0000 0000 0
E: 4447.670658 0003 003a 49
E: 4447.670658 0000 0000 0
E: 4447.676666 0003 002f 0
E: 4447.676666 0003 0036 1733
E: 4447.676666 0003 002f 1
E: 4447.676666 0003 003a 51
E: 4447.676666 0003 0001 1733
E: 4447.676666 0000 0000 0
E: 4447.685249 0003 002f 0
E: 4447.685249 0003 0036 1732
E: 4447.685249 0003 002f 1
E: 4447.685249 0003 003a 52
E: 4447.685249 0003 0001 1732
E: 4447.685249 0000 0000 0
E: 4447.691052 0003 003a 53
E: 4447.691052 0003 0030 296
E: 4447.691052 0003 0031 225
E: 4447.691052 0000 0000 0
E: 4447.697130 0003 002f 0
E: 4447.697130 0003 0036 1733
E: 4447.697130 0003 002f 1
E: 4447.697130 0003 003a 54
E: 4447.697130 0003 0030 225
E: 4447.697130 0003 0031 222
E: 4447.697130 0003 0001 1733
E: 4447.697130 0000 0000 0
E: 4447.714817 0003 002f 0
E: 4447.714817 0003 0036 1734
E: 4447.714817 0003 002f 1
E: 4447.714817 0003 003a 53
E: 4447.714817 0003 0001 1734
E: 4447.714817 0000 0000 0
E: 4447.726677 0003 003a 52
E: 4447.726677 0000 0000 0
E: 4447.735146 0003 003a 51
E: 4447.735146 0000 0000 0
E: 4447.747004 0003 002f 0
E: 4447.747004 0003 0036 1733
E: 4447.747004 0003 002f 1
E: 4447.747004 0003 0035 1484
E: 4447.747004 0003 0036 335
E: 4447.747004 0003 0001 1733
E: 4447.747004 0000 0000 0
E: 4447.753133 0003 0035 1494
E: 4447.753133 0003 0036 342
E: 4447.753133 0000 0000 0
E: 4447.759024 0003 0035 1501
E: 4447.759024 0003 0036 347
E: 4447.759024 0000 0000 0
E: 4447.764966 0003 0035 1506
E: 4447.764966 0003 0036 352
E: 4447.764966 0000 0000 0
E: 4447.772225 0003 0035 1510
E: 4447.772225 0003 0036 357
E: 4447.772225 0000 0000 0
E: 4447.780325 0003 002f 0
E: 4447.780325 0003 0036 1734
E: 4447.780325 0003 002f 1
E: 4447.780325 0003 0035 1514
E: 4447.780325 0003 0036 361
E: 4447.780325 0003 0001 1734
E: 4447.780325 0000 0000 0
E: 4447.785577 0003 0035 1517
E: 4447.785577 0003 0036 366
E: 4447.785577 0000 0000 0
E: 4447.790879 0003 0035 1520
E: 4447.790879 0003 0036 372
E: 4447.790879 0000 0000 0
E: 4447.796817 0003 0035 1524
E: 4447.796817 0003 0036 379
E: 4447.796817 0000 0000 0
E: 4447.802773 0003 002f 0
E: 4447.802773 0003 0036 1733
E: 4447.802773 0003 002f 1
E: 4447.802773 0003 0035 1530
E: 4447.802773 0003 0036 388
E: 4447.802773 0003 001c 4
E: 4447.802773 0003 0030 300
E: 4447.802773 0003 0001 1733
E: 4447.802773 0000 0000 0
E: 4447.808725 0003 002f 0
E: 4447.808725 0003 0036 1732
E: 4447.808725 0003 001c 3
E: 4447.808725 0003 002f 1
E: 4447.808725 0003 0035 1533
E: 4447.808725 0003 0036 396
E: 4447.808725 0003 0030 225
E: 4447.808725 0003 0001 1732
E: 4447.808725 0000 0000 0
E: 4447.814680 0003 0035 1538
E: 4447.814680 0003 0036 405
E: 4447.814680 0003 003a 52
E: 4447.814680 0003 001c 4
E: 4447.814680 0003 0030 300
E: 4447.814680 0000 0000 0
E: 4447.820883 0003 001c 3
E: 4447.820883 0003 0035 1541
E: 4447.820883 0003 0036 416
E: 4447.820883 0003 0030 296
E: 4447.820883 0003 0031 225
E: 4447.820883 0000 0000 0
E: 4447.827035 0003 0035 1546
E: 4447.827035 0003 0036 428
E: 4447.827035 0003 003a 53
E: 4447.827035 0003 001c 4
E: 4447.827035 0003 0030 300
E: 4447.827035 0003 0031 296
E: 4447.827035 0000 0000 0
E: 4447.835491 0003 001c 3
E: 4447.835491 0003 0035 1549
E: 4447.835491 0003 0036 439
E: 4447.835491 0003 003a 54
E: 4447.835491 0003 0030 296
E: 4447.835491 0003 0031 225
E: 4447.835491 0000 0000 0
E: 4447.841478 0003 002f 0
E: 4447.841478 0003 0036 1733
E: 4447.841478 0003 002f 1
E: 4447.841478 0003 0035 1551
E: 4447.841478 0003 0036 450
E: 4447.841478 0003 003a 55
E: 4447.841478 0003 0001 1733
E: 4447.841478 0000 0000 0
E: 4447.847464 0003 0035 1555
E: 4447.847464 0003 0036 463
E: 4447.847464 0003 003a 56
E: 4447.847464 0003 001c 4
E: 4447.847464 0003 0030 300
E: 4447.847464 0003 0031 222
E: 4447.847464 0000 0000 0
E: 4447.853989 0003 001c 3
E: 4447.853989 0003 0035 1558
E: 4447.853989 0003 0036 474
E: 4447.853989 0003 001c 4
E: 4447.853989 0000 0000 0
E: 4447.859730 0003 001c 3
E: 4447.859730 0003 0035 1560
E: 4447.859730 0003 0036 485
E: 4447.859730 0003 003a 55
E: 4447.859730 0003 001c 4
E: 4447.859730 0000 0000 0
E: 4447.865755 0003 001c 3
E: 4447.865755 0003 0035 1564
E: 4447.865755 0003 0036 496
E: 4447.865755 0003 0030 225
E: 4447.865755 0000 0000 0
E: 4447.873039 0003 002f 0
E: 4447.873039 0003 0036 1734
E: 4447.873039 0003 002f 1
E: 4447.873039 0003 0035 1566
E: 4447.873039 0003 0036 506
E: 4447.873039 0003 0001 1734
E: 4447.873039 0000 0000 0
E: 4447.879924 0003 002f 0
E: 4447.879924 0003 0036 1736
E: 4447.879924 0003 002f 1
E: 4447.879924 0003 0035 1568
E: 4447.879924 0003 0036 517
E: 4447.879924 0003 0001 1736
E: 4447.879924 0000 0000 0
E: 4447.885916 0003 002f 0
E: 4447.885916 0003 0036 1737
E: 4447.885916 0003 002f 1
E: 4447.885916 0003 0035 1570
E: 4447.885916 0003 0036 529
E: 4447.885916 0003 0001 1737
E: 4447.885916 0000 0000 0
E: 4447.892225 0003 002f 0
E: 4447.892225 0003 0036 1738
E: 4447.892225 0003 003a 75
E: 4447.892225 0003 002f 1
E: 4447.892225 0003 0035 1572
E: 4447.892225 0003 0036 543
E: 4447.892225 0003 0001 1738
E: 4447.892225 0003 0018 75
E: 4447.892225 0000 0000 0
E: 4447.898371 0003 002f 0
E: 4447.898371 0003 0035 881
E: 4447.898371 0003 0036 1739
E: 4447.898371 0003 002f 1
E: 4447.898371 0003 0035 1574
E: 4447.898371 0003 0036 559
E: 4447.898371 0003 0030 296
E: 4447.898371 0003 0031 225
E: 4447.898371 0003 0000 881
E: 4447.898371 0003 0001 1739
E: 4447.898371 0000 0000 0
E: 4447.904583 0003 002f 0
E: 4447.904583 0003 003a 76
E: 4447.904583 0003 002f 1
E: 4447.904583 0003 0035 1576
E: 4447.904583 0003 0036 572
E: 4447.904583 0003 0018 76
E: 4447.904583 0000 0000 0
E: 4447.911441 0003 002f 0
E: 4447.911441 0003 0036 1740
E: 4447.911441 0003 003a 75
E: 4447.911441 0003 002f 1
E: 4447.911441 0003 0035 1577
E: 4447.911441 0003 0036 587
E: 4447.911441 0003 0001 1740
E: 4447.911441 0003 0018 75
E: 4447.911441 0000 0000 0
E: 4447.916835 0003 0035 1579
E: 4447.916835 0003 0036 601
E: 4447.916835 0000 0000 0
E: 4447.922843 0003 0035 1580
E: 4447.922843 0003 0036 610
E: 4447.922843 0000 0000 0
E: 4447.932912 0003 002f 0
E: 4447.932912 0003 0035 880
E: 4447.932912 0003 0036 1741
E: 4447.932912 0003 002f 1
E: 4447.932912 0003 0035 1582
E: 4447.932912 0003 0036 619
E: 4447.932912 0003 0030 225
E: 4447.932912 0003 0031 222
E: 4447.932912 0003 0000 880
E: 4447.932912 0003 0001 1741
E: 4447.932912 0000 0000 0
E: 4447.937008 0003 0035 1586
E: 4447.937008 0003 0036 630
E: 4447.937008 0000 0000 0
E: 4447.942991 0003 0035 1589
E: 4447.942991 0003 0036 639
E: 4447.942991 0000 0000 0
E: 4447.948978 0003 002f 0
E: 4447.948978 0003 0035 879
E: 4447.948978 0003 002f 1
E: 4447.948978 0003 0035 1593
E: 4447.948978 0003 0036 648
E: 4447.948978 0003 0000 879
E: 4447.948978 0000 0000 0
E: 4447.954968 0003 0035 1596
E: 4447.954968 0003 0036 657
E: 4447.954968 0000 0000 0
E: 4447.960994 0003 002f 0
E: 4447.960994 0003 0036 1740
E: 4447.960994 0003 002f 1
E: 4447.960994 0003 0035 1599
E: 4447.960994 0003 0036 666
E: 4447.960994 0003 003a 54
E: 4447.960994 0003 0001 1740
E: 4447.960994 0000 0000 0
E: 4447.967028 0003 0035 1602
E: 4447.967028 0003 0036 673
E: 4447.967028 0003 003a 53
E: 4447.967028 0000 0000 0
E: 4447.973078 0003 002f 0
E: 4447.973078 0003 0035 878
E: 4447.973078 0003 002f 1
E: 4447.973078 0003 0035 1605
E: 4447.973078 0003 0036 680
E: 4447.973078 0003 003a 52
E: 4447.973078 0003 0000 878
E: 4447.973078 0000 0000 0
E: 4447.981624 0003 0035 1607
E: 4447.981624 0003 0036 687
E: 4447.981624 0000 0000 0
E: 4447.987566 0003 002f 0
E: 4447.987566 0003 0036 1741
E: 4447.987566 0003 002f 1
E: 4447.987566 0003 0035 1610
E: 4447.987566 0003 0036 695
E: 4447.987566 0003 0001 1741
E: 4447.987566 0000 0000 0
E: 4447.993418 0003 002f 0
E: 4447.993418 0003 0035 877
E: 4447.993418 0003 0036 1742
E: 4447.993418 0003 002f 1
E: 4447.993418 0003 0035 1613
E: 4447.993418 0003 0036 704
E: 4447.993418 0003 0000 877
E: 4447.993418 0003 0001 1742
E: 4447.993418 0000 0000 0
E: 4447.999399 0003 0035 1616
E: 4447.999399 0003 0036 714
E: 4447.999399 0003 003a 53
E: 4447.999399 0003 0030 296
E: 4447.999399 0003 0031 225
E: 4447.999399 0000 0000 0
E: 4448.005154 0003 002f 0
E: 4448.005154 0003 0035 876
E: 4448.005154 0003 0036 1741
E: 4448.005154 0003 003a 74
E: 4448.005154 0003 002f 1
E: 4448.005154 0003 0035 1619
E: 4448.005154 0003 0036 724
E: 4448.005154 0003 003a 54
E: 4448.005154 0003 0000 876
E: 4448.005154 0003 0001 1741
E: 4448.005154 0003 0018 74
E: 4448.005154 0000 0000 0
E: 4448.011478 0003 002f 0
E: 4448.011478 0003 0035 875
E: 4448.011478 0003 003a 73
E: 4448.011478 0003 002f 1
E: 4448.011478 0003 0035 1622
E: 4448.011478 0003 0036 733
E: 4448.011478 0003 0000 875
E: 4448.011478 0003 0018 73
E: 4448.011478 0000 0000 0
E: 4448.017368 0003 002f 0
E: 4448.017368 0003 003a 74
E: 4448.017368 0003 002f 1
E: 4448.017368 0003 0035 1625
E: 4448.017368 0003 0036 742
E: 4448.017368 0003 0018 74
E: 4448.017368 0000 0000 0
E: 4448.025827 0003 002f 0
E: 4448.025827 0003 003a 73
E: 4448.025827 0003 002f 1
E: 4448.025827 0003 0035 1628
E: 4448.025827 0003 0036 751
E: 4448.025827 0003 0018 73
E: 4448.025827 0000 0000 0
E: 4448.032096 0003 002f 0
E: 4448.032096 0003 0036 1742
E: 4448.032096 0003 002f 1
E: 4448.032096 0003 0035 1631
E: 4448.032096 0003 0036 760
E: 4448.032096 0003 0030 225
E: 4448.032096 0003 0031 222
E: 4448.032096 0003 0001 1742
E: 4448.032096 0000 0000 0
E: 4448.037816 0003 002f 0
E: 4448.037816 0003 0035 874
E: 4448.037816 0003 002f 1
E: 4448.037816 0003 0035 1635
E: 4448.037816 0003 0036 769
E: 4448.037816 0003 0000 874
E: 4448.037816 0000 0000 0
E: 4448.043809 0003 002f 0
E: 4448.043809 0003 0036 1743
E: 4448.043809 0003 002f 1
E: 4448.043809 0003 0035 1638
E: 4448.043809 0003 0036 777
E: 4448.043809 0003 0001 1743
E: 4448.043809 0000 0000 0
E: 4448.049803 0003 0035 1641
E: 4448.049803 0003 0036 785
E: 4448.049803 0000 0000 0
E: 4448.055791 0003 002f 0
E: 4448.055791 0003 0035 873
E: 4448.055791 0003 002f 1
E: 4448.055791 0003 0035 1643
E: 4448.055791 0003 0036 791
E: 4448.055791 0003 003a 53
E: 4448.055791 0003 0000 873
E: 4448.055791 0000 0000 0
E: 4448.062119 0003 0035 1645
E: 4448.062119 0003 0036 796
E: 4448.062119 0000 0000 0
E: 4448.067779 0003 002f 0
E: 4448.067779 0003 0036 1744
E: 4448.067779 0003 002f 1
E: 4448.067779 0003 0035 1646
E: 4448.067779 0003 0036 802
E: 4448.067779 0003 0001 1744
E: 4448.067779 0000 0000 0
E: 4448.076525 0003 0035 1647
E: 4448.076525 0003 0036 809
E: 4448.076525 0003 003a 52
E: 4448.076525 0000 0000 0
E: 4448.082382 0003 002f 0
E: 4448.082382 0003 0036 1745
E: 4448.082382 0003 002f 1
E: 4448.082382 0003 0035 1648
E: 4448.082382 0003 0036 817
E: 4448.082382 0003 003a 51
E: 4448.082382 0003 0001 1745
E: 4448.082382 0000 0000 0
E: 4448.088360 0003 0036 828
E: 4448.088360 0000 0000 0
E: 4448.094218 0003 0035 1649
E: 4448.094218 0003 0036 839
E: 4448.094218 0003 0030 296
E: 4448.094218 0003 0031 225
E: 4448.094218 0000 0000 0
E: 4448.100199 0003 002f 0
E: 4448.100199 0003 0035 872
E: 4448.100199 0003 002f 1
E: 4448.100199 0003 0035 1650
E: 4448.100199 0003 0036 848
E: 4448.100199 0003 0030 225
E: 4448.100199 0003 0031 222
E: 4448.100199 0003 0000 872
E: 4448.100199 0000 0000 0
E: 4448.106197 0003 0035 1651
E: 4448.106197 0003 0036 857
E: 4448.106197 0000 0000 0
E: 4448.112411 0003 0035 1653
E: 4448.112411 0003 0036 866
E: 4448.112411 0000 0000 0
E: 4448.118410 0003 002f 0
E: 4448.118410 0003 0036 1744
E: 4448.118410 0003 002f 1
E: 4448.118410 0003 0035 1655
E: 4448.118410 0003 0036 878
E: 4448.118410 0003 003a 53
E: 4448.118410 0003 0030 296
E: 4448.118410 0003 0031 225
E: 4448.118410 0003 0001 1744
E: 4448.118410 0000 0000 0
E: 4448.126874 0003 0035 1657
E: 4448.126874 0003 0036 891
E: 4448.126874 0003 003a 54
E: 4448.126874 0000 0000 0
E: 4448.133608 0003 002f 0
E: 4448.133608 0003 0036 1745
E: 4448.133608 0003 002f 1
E: 4448.133608 0003 0035 1659
E: 4448.133608 0003 0036 906
E: 4448.133608 0003 0030 225
E: 4448.133608 0003 0031 222
E: 4448.133608 0003 0001 1745
E: 4448.133608 0000 0000 0
E: 4448.139147 0003 002f 0
E: 4448.139147 0003 0035 871
E: 4448.139147 0003 002f 1
E: 4448.139147 0003 0035 1660
E: 4448.139147 0003 0036 921
E: 4448.139147 0003 0000 871
E: 4448.139147 0000 0000 0
E: 4448.145175 0003 0035 1661
E: 4448.145175 0003 0036 935
E: 4448.145175 0003 003a 53
E: 4448.145175 0000 0000 0
E: 4448.151944 0003 0036 948
E: 4448.151944 0003 003a 52
E: 4448.151944 0000 0000 0
E: 4448.156819 0003 002f 0
E: 4448.156819 0003 0035 870
E: 4448.156819 0003 003a 72
E: 4448.156819 0003 002f 1
E: 4448.156819 0003 0035 1660
E: 4448.156819 0003 0036 962
E: 4448.156819 0003 003a 51
E: 4448.156819 0003 0000 870
E: 4448.156819 0003 0018 72
E: 4448.156819 0000 0000 0
E: 4448.162806 0003 002f 0
E: 4448.162806 0003 0035 869
E: 4448.162806 0003 003a 71
E: 4448.162806 0003 002f 1
E: 4448.162806 0003 0035 1656
E: 4448.162806 0003 0036 982
E: 4448.162806 0003 0000 869
E: 4448.162806 0003 0018 71
E: 4448.162806 0000 0000 0
E: 4448.168803 0003 0035 1652
E: 4448.168803 0003 0036 1000
E: 4448.168803 0003 003a 50
E: 4448.168803 0000 0000 0
E: 4448.177025 0003 002f 0
E: 4448.177025 0003 0035 868
E: 4448.177025 0003 002f 1
E: 4448.177025 0003 0036 1018
E: 4448.177025 0003 003a 49
E: 4448.177025 0003 0000 868
E: 4448.177025 0000 0000 0
E: 4448.182874 0003 002f 0
E: 4448.182874 0003 0035 867
E: 4448.182874 0003 0036 1746
E: 4448.182874 0003 002f 1
E: 4448.182874 0003 0035 1650
E: 4448.182874 0003 0036 1034
E: 4448.182874 0003 003a 50
E: 4448.182874 0003 0000 867
E: 4448.182874 0003 0001 1746
E: 4448.182874 0000 0000 0
E: 4448.188551 0003 002f 0
E: 4448.188551 0003 0035 866
E: 4448.188551 0003 002f 1
E: 4448.188551 0003 0036 1050
E: 4448.188551 0003 0030 296
E: 4448.188551 0003 0031 225
E: 4448.188551 0003 0000 866
E: 4448.188551 0000 0000 0
E: 4448.194852 0003 002f 0
E: 4448.194852 0003 0035 865
E: 4448.194852 0003 0036 1747
E: 4448.194852 0003 002f 1
E: 4448.194852 0003 0035 1651
E: 4448.194852 0003 0036 1067
E: 4448.194852 0003 003a 49
E: 4448.194852 0003 0030 225
E: 4448.194852 0003 0031 222
E: 4448.194852 0003 0000 865
E: 4448.194852 0003 0001 1747
E: 4448.194852 0000 0000 0
E: 4448.200391 0003 002f 0
E: 4448.200391 0003 0036 1748
E: 4448.200391 0003 002f 1
E: 4448.200391 0003 0035 1652
E: 4448.200391 0003 0036 1080
E: 4448.200391 0003 0001 1748
E: 4448.200391 0000 0000 0
E: 4448.206323 0003 0035 1651
E: 4448.206323 0003 0036 1093
E: 4448.206323 0000 0000 0
E: 4448.213040 0003 0036 1099
E: 4448.213040 0000 0000 0
E: 4448.217639 0003 002f 0
E: 4448.217639 0003 0036 1749
E: 4448.217639 0003 002f 1
E: 4448.217639 0003 0036 1104
E: 4448.217639 0003 0001 1749
E: 4448.217639 0000 0000 0
E: 4448.225860 0003 002f 0
E: 4448.225860 0003 0036 1750
E: 4448.225860 0003 002f 1
E: 4448.225860 0003 0036 1108
E: 4448.225860 0003 0001 1750
E: 4448.225860 0000 0000 0
E: 4448.231697 0003 002f 0
E: 4448.231697 0003 0036 1751
E: 4448.231697 0003 002f 1
E: 4448.231697 0003 0036 1111
E: 4448.231697 0003 0001 1751
E: 4448.231697 0000 0000 0
E: 4448.237384 0003 002f 0
E: 4448.237384 0003 0035 864
E: 4448.237384 0003 002f 1
E: 4448.237384 0003 0036 1113
E: 4448.237384 0003 0000 864
E: 4448.237384 0000 0000 0
E: 4448.243227 0003 002f 0
E: 4448.243227 0003 0036 1750
E: 4448.243227 0003 002f 1
E: 4448.243227 0003 0036 1115
E: 4448.243227 0003 0001 1750
E: 4448.243227 0000 0000 0
E: 4448.248906 0003 0035 1652
E: 4448.248906 0003 0036 1117
E: 4448.248906 0000 0000 0
E: 4448.254990 0003 0035 1653
E: 4448.254990 0003 0036 1120
E: 4448.254990 0000 0000 0
E: 4448.260597 0003 0036 1125
E: 4448.260597 0000 0000 0
E: 4448.266359 0003 002f 0
E: 4448.266359 0003 0036 1751
E: 4448.266359 0003 002f 1
E: 4448.266359 0003 0036 1131
E: 4448.266359 0003 003a 48
E: 4448.266359 0003 0001 1751
E: 4448.266359 0000 0000 0
E: 4448.274452 0003 002f 0
E: 4448.274452 0003 0035 863
E: 4448.274452 0003 002f 1
E: 4448.274452 0003 0035 1651
E: 4448.274452 0003 0036 1138
E: 4448.274452 0003 003a 47
E: 4448.274452 0003 0000 863
E: 4448.274452 0000 0000 0
E: 4448.280202 0003 002f 0
E: 4448.280202 0003 0036 1752
E: 4448.280202 0003 002f 1
E: 4448.280202 0003 0035 1649
E: 4448.280202 0003 0036 1145
E: 4448.280202 0003 0001 1752
E: 4448.280202 0000 0000 0
E: 4448.285967 0003 002f 0
E: 4448.285967 0003 0036 1751
E: 4448.285967 0003 002f 1
E: 4448.285967 0003 0035 1647
E: 4448.285967 0003 0036 1152
E: 4448.285967 0003 003a 48
E: 4448.285967 0003 0001 1751
E: 4448.285967 0000 0000 0
E: 4448.291821 0003 0036 1159
E: 4448.291821 0003 003a 47
E: 4448.291821 0000 0000 0
E: 4448.297493 0003 0035 1646
E: 4448.297493 0003 0036 1165
E: 4448.297493 0000 0000 0
E: 4448.303368 0003 0035 1645
E: 4448.303368 0003 0036 1170
E: 4448.303368 0000 0000 0
E: 4448.309008 0003 0036 1173
E: 4448.309008 0000 0000 0
E: 4448.314888 0003 0036 1175
E: 4448.314888 0000 0000 0
E: 4448.323140 0003 0035 1644
E: 4448.323140 0003 0036 1177
E: 4448.323140 0000 0000 0
E: 4448.328669 0003 0036 1179
E: 4448.328669 0001 0110 0
E: 4448.328669 0000 0000 0
E: 4448.334290 0003 0036 1180
E: 4448.334290 0000 0000 0
E: 4448.345795 0003 002f 0
E: 4448.345795 0003 0036 1752
E: 4448.345795 0003 002f 1
E: 4448.345795 0003 0035 1645
E: 4448.345795 0003 0001 1752
E: 4448.345795 0000 0000 0
E: 4448.351646 0003 002f 0
E: 4448.351646 0003 0036 1753
E: 4448.351646 0003 002f 1
E: 4448.351646 0003 0035 1646
E: 4448.351646 0003 0036 1179
E: 4448.351646 0003 003a 46
E: 4448.351646 0003 0001 1753
E: 4448.351646 0000 0000 0
E: 4448.357312 0003 0035 1649
E: 4448.357312 0003 0036 1175
E: 4448.357312 0003 003a 44
E: 4448.357312 0000 0000 0
E: 4448.363065 0003 0035 1654
E: 4448.363065 0003 0036 1166
E: 4448.363065 0003 003a 41
E: 4448.363065 0000 0000 0
E: 4448.371631 0003 003a 40
E: 4448.371631 0003 001c 1
E: 4448.371631 0003 0030 75
E: 4448.371631 0003 0031 74
E: 4448.371631 0000 0000 0
E: 4448.376509 0003 002f 0
E: 4448.376509 0003 0035 862
E: 4448.376509 0003 0036 1754
E: 4448.376509 0003 001c 3
E: 4448.376509 0003 002f 1
E: 4448.376509 0003 003a 39
E: 4448.376509 0003 001c 1
E: 4448.376509 0003 0000 862
E: 4448.376509 0003 0001 1754
E: 4448.376509 0000 0000 0
E: 4448.381802 0003 001c 3
E: 4448.381802 0003 0039 -1
E: 4448.381802 0001 0145 1
E: 4448.381802 0001 014d 0
E: 4448.381802 0000 0000 0
E: 4448.411035 0003 002f 0
E: 4448.411035 0003 0036 1753
E: 4448.411035 0003 0001 1753
E: 4448.411035 0000 0000 0
E: 4448.418567 0003 0036 1752
E: 4448.418567 0003 0001 1752
E: 4448.418567 0000 0000 0
E: 4448.428642 0003 0036 1753
E: 4448.428642 0003 0001 1753
E: 4448.428642 0000 0000 0
E: 4448.452047 0003 0036 1752
E: 4448.452047 0003 0001 1752
E: 4448.452047 0000 0000 0
E: 4448.457897 0003 0035 861
E: 4448.457897 0003 0000 861
E: 4448.457897 0000 0000 0
E: 4448.487128 0003 0035 860
E: 4448.487128 0003 0000 860
E: 4448.487128 0000 0000 0
E: 4448.523150 0003 0036 1753
E: 4448.523150 0003 0001 1753
E: 4448.523150 0000 0000 0
E: 4448.533997 0003 0036 1754
E: 4448.533997 0003 0001 1754
E: 4448.533997 0000 0000 0
E: 4448.539906 0003 0036 1755
E: 4448.539906 0003 0001 1755
E: 4448.539906 0000 0000 0
E: 4448.545720 0003 0035 861
E: 4448.545720 0003 0000 861
E: 4448.545720 0000 0000 0
E: 4448.551588 0003 0035 862
E: 4448.551588 0003 0036 1756
E: 4448.551588 0003 0000 862
E: 4448.551588 0003 0001 1756
E: 4448.551588 0000 0000 0
E: 4448.557451 0003 0035 863
E: 4448.557451 0003 0036 1757
E: 4448.557451 0003 003a 70
E: 4448.557451 0003 0000 863
E: 4448.557451 0003 0001 1757
E: 4448.557451 0003 0018 70
E: 4448.557451 0000 0000 0
E: 4448.564953 0003 0035 865
E: 4448.564953 0003 0036 1758
E: 4448.564953 0003 003a 68
E: 4448.564953 0003 0000 865
E: 4448.564953 0003 0001 1758
E: 4448.564953 0003 0018 68
E: 4448.564953 0000 0000 0
E: 4448.570143 0003 0035 867
E: 4448.570143 0003 0036 1761
E: 4448.570143 0003 003a 67
E: 4448.570143 0003 0000 867
E: 4448.570143 0003 0001 1761
E: 4448.570143 0003 0018 67
E: 4448.570143 0000 0000 0
E: 4448.575069 0003 0035 870
E: 4448.575069 0003 0036 1766
E: 4448.575069 0003 003a 66
E: 4448.575069 0003 0000 870
E: 4448.575069 0003 0001 1766
E: 4448.575069 0003 0018 66
E: 4448.575069 0000 0000 0
E: 4448.581208 0003 0035 873
E: 4448.581208 0003 0036 1772
E: 4448.581208 0003 003a 65
E: 4448.581208 0003 0000 873
E: 4448.581208 0003 0001 1772
E: 4448.581208 0003 0018 65
E: 4448.581208 0000 0000 0
E: 4448.586702 0003 0035 876
E: 4448.586702 0003 0036 1778
E: 4448.586702 0003 003a 64
E: 4448.586702 0003 0000 876
E: 4448.586702 0003 0001 1778
E: 4448.586702 0003 0018 64
E: 4448.586702 0000 0000 0
E: 4448.592543 0003 0035 879
E: 4448.592543 0003 0036 1784
E: 4448.592543 0003 003a 63
E: 4448.592543 0003 0000 879
E: 4448.592543 0003 0001 1784
E: 4448.592543 0003 0018 63
E: 4448.592543 0000 0000 0
E: 4448.598433 0003 0035 883
E: 4448.598433 0003 0036 1792
E: 4448.598433 0003 0000 883
E: 4448.598433 0003 0001 1792
E: 4448.598433 0000 0000 0
E: 4448.604267 0003 0035 888
E: 4448.604267 0003 0036 1801
E: 4448.604267 0003 0000 888
E: 4448.604267 0003 0001 1801
E: 4448.604267 0000 0000 0
E: 4448.611559 0003 0035 894
E: 4448.611559 0003 0036 1814
E: 4448.611559 0003 003a 61
E: 4448.611559 0003 0030 225
E: 4448.611559 0003 0031 222
E: 4448.611559 0003 0000 894
E: 4448.611559 0003 0001 1814
E: 4448.611559 0003 0018 61
E: 4448.611559 0000 0000 0
E: 4448.616357 0003 0035 905
E: 4448.616357 0003 0036 1839
E: 4448.616357 0003 003a 58
E: 4448.616357 0003 0000 905
E: 4448.616357 0003 0001 1839
E: 4448.616357 0003 0018 58
E: 4448.616357 0000 0000 0
E: 4448.621821 0003 0035 916
E: 4448.621821 0003 0036 1883
E: 4448.621821 0003 003a 51
E: 4448.621821 0003 001c 2
E: 4448.621821 0003 0030 222
E: 4448.621821 0003 0031 150
E: 4448.621821 0003 0000 916
E: 4448.621821 0003 0001 1883
E: 4448.621821 0003 0018 51
E: 4448.621821 0000 0000 0
E: 4448.627702 0003 0035 926
E: 4448.627702 0003 0036 1925
E: 4448.627702 0003 003a 45
E: 4448.627702 0003 0030 150
E: 4448.627702 0003 0031 148
E: 4448.627702 0003 0000 926
E: 4448.627702 0003 0001 1925
E: 4448.627702 0003 0018 45
E: 4448.627702 0000 0000 0
E: 4448.633550 0003 003a 42
E: 4448.633550 0003 001c 1
E: 4448.633550 0003 0030 75
E: 4448.633550 0003 0031 74
E: 4448.633550 0003 0018 42
E: 4448.633550 0000 0000 0
E: 4448.639413 0003 0039 -1
E: 4448.639413 0001 014a 0
E: 4448.639413 0001 0145 0
E: 4448.639413 0003 0018 0
E: 4448.639413 0000 0000 0
E: 4448.639913 0003 002f 0
E: 4448.639913 0003 0039 -1
E: 4448.639913 0003 002f 1
E: 4448.639913 0003 0039 -1
E: 4448.639913 0003 002f 2
E: 4448.639913 0003 0039 -1
E: 4448.639913 0003 002f 3
E: 4448.639913 0003 0039 -1
E: 4448.639913 0003 002f 4
E: 4448.639913 0003 0039 -1
